<svg width="265" height="152" viewBox="0 0 265 152" fill="none" xmlns="http://www.w3.org/2000/svg">
<path d="M4.5 93V23.1818H34.7727C40.0909 23.1818 44.5568 23.8977 48.1705 25.3295C51.8068 26.7614 54.5455 28.7841 56.3864 31.3977C58.25 34.0114 59.1818 37.0909 59.1818 40.6364C59.1818 43.2045 58.6136 45.5455 57.4773 47.6591C56.3636 49.7727 54.7955 51.5455 52.7727 52.9773C50.75 54.3864 48.3864 55.3636 45.6818 55.9091V56.5909C48.6818 56.7045 51.4091 57.4659 53.8636 58.875C56.3182 60.2614 58.2727 62.1818 59.7273 64.6364C61.1818 67.0682 61.9091 69.9318 61.9091 73.2273C61.9091 77.0455 60.9091 80.4432 58.9091 83.4205C56.9318 86.3977 54.1136 88.7386 50.4545 90.4432C46.7955 92.1477 42.4318 93 37.3636 93H4.5ZM23.4545 77.8636H32.3182C35.5 77.8636 37.8864 77.2727 39.4773 76.0909C41.0682 74.8864 41.8636 73.1136 41.8636 70.7727C41.8636 69.1364 41.4886 67.75 40.7386 66.6136C39.9886 65.4773 38.9205 64.6136 37.5341 64.0227C36.1705 63.4318 34.5227 63.1364 32.5909 63.1364H23.4545V77.8636ZM23.4545 51.4091H31.2273C32.8864 51.4091 34.3523 51.1477 35.625 50.625C36.8977 50.1023 37.8864 49.3523 38.5909 48.375C39.3182 47.375 39.6818 46.1591 39.6818 44.7273C39.6818 42.5682 38.9091 40.9205 37.3636 39.7841C35.8182 38.625 33.8636 38.0455 31.5 38.0455H23.4545V51.4091ZM86.7614 93H66.3068L89.3523 23.1818H115.261L138.307 93H117.852L102.58 42.4091H102.034L86.7614 93ZM82.9432 65.4545H121.398V79.6364H82.9432V65.4545ZM179.949 45C179.767 42.7273 178.915 40.9545 177.392 39.6818C175.892 38.4091 173.608 37.7727 170.54 37.7727C168.585 37.7727 166.983 38.0114 165.733 38.4886C164.506 38.9432 163.597 39.5682 163.006 40.3636C162.415 41.1591 162.108 42.0682 162.085 43.0909C162.04 43.9318 162.188 44.6932 162.528 45.375C162.892 46.0341 163.46 46.6364 164.233 47.1818C165.006 47.7045 165.994 48.1818 167.199 48.6136C168.403 49.0455 169.835 49.4318 171.494 49.7727L177.222 51C181.085 51.8182 184.392 52.8977 187.142 54.2386C189.892 55.5795 192.142 57.1591 193.892 58.9773C195.642 60.7727 196.926 62.7955 197.744 65.0455C198.585 67.2955 199.017 69.75 199.04 72.4091C199.017 77 197.869 80.8864 195.597 84.0682C193.324 87.25 190.074 89.6705 185.847 91.3295C181.642 92.9886 176.585 93.8182 170.676 93.8182C164.608 93.8182 159.313 92.9205 154.79 91.125C150.29 89.3295 146.79 86.5682 144.29 82.8409C141.813 79.0909 140.563 74.2955 140.54 68.4545H158.54C158.653 70.5909 159.188 72.3864 160.142 73.8409C161.097 75.2955 162.438 76.3977 164.165 77.1477C165.915 77.8977 167.994 78.2727 170.403 78.2727C172.426 78.2727 174.119 78.0227 175.483 77.5227C176.847 77.0227 177.881 76.3295 178.585 75.4432C179.29 74.5568 179.653 73.5455 179.676 72.4091C179.653 71.3409 179.301 70.4091 178.619 69.6136C177.96 68.7955 176.869 68.0682 175.347 67.4318C173.824 66.7727 171.767 66.1591 169.176 65.5909L162.222 64.0909C156.04 62.75 151.165 60.5114 147.597 57.375C144.051 54.2159 142.29 49.9091 142.312 44.4545C142.29 40.0227 143.472 36.1477 145.858 32.8295C148.267 29.4886 151.597 26.8864 155.847 25.0227C160.119 23.1591 165.017 22.2273 170.54 22.2273C176.176 22.2273 181.051 23.1705 185.165 25.0568C189.278 26.9432 192.449 29.6023 194.676 33.0341C196.926 36.4432 198.063 40.4318 198.085 45H179.949ZM206.25 93V23.1818H256.568V38.4545H225.205V50.4545H253.977V65.7273H225.205V77.7273H256.432V93H206.25Z" fill="black"/>
<path d="M25.25 110.091H37.0455L45.1591 129.864H45.5682L53.6818 110.091H65.4773V145H56.2045V124.818H55.9318L48.1591 144.727H42.5682L34.7955 124.682H34.5227V145H25.25V110.091ZM79.446 110.091V145H69.9688V110.091H79.446ZM114.142 110.091V145H106.233L93.6193 126.659H93.4148V145H83.9375V110.091H91.983L104.392 128.364H104.665V110.091H114.142ZM128.102 110.091V145H118.625V110.091H128.102ZM151.412 121C151.321 119.864 150.895 118.977 150.134 118.341C149.384 117.705 148.241 117.386 146.707 117.386C145.73 117.386 144.929 117.506 144.304 117.744C143.69 117.972 143.236 118.284 142.94 118.682C142.645 119.08 142.491 119.534 142.48 120.045C142.457 120.466 142.531 120.847 142.702 121.188C142.884 121.517 143.168 121.818 143.554 122.091C143.94 122.352 144.435 122.591 145.037 122.807C145.639 123.023 146.355 123.216 147.185 123.386L150.048 124C151.98 124.409 153.634 124.949 155.009 125.619C156.384 126.29 157.509 127.08 158.384 127.989C159.259 128.886 159.901 129.898 160.31 131.023C160.73 132.148 160.946 133.375 160.957 134.705C160.946 137 160.372 138.943 159.236 140.534C158.099 142.125 156.474 143.335 154.361 144.165C152.259 144.994 149.73 145.409 146.776 145.409C143.741 145.409 141.094 144.96 138.832 144.062C136.582 143.165 134.832 141.784 133.582 139.92C132.344 138.045 131.719 135.648 131.707 132.727H140.707C140.764 133.795 141.031 134.693 141.509 135.42C141.986 136.148 142.656 136.699 143.52 137.074C144.395 137.449 145.435 137.636 146.639 137.636C147.651 137.636 148.497 137.511 149.179 137.261C149.861 137.011 150.378 136.665 150.73 136.222C151.082 135.778 151.264 135.273 151.276 134.705C151.264 134.17 151.088 133.705 150.747 133.307C150.418 132.898 149.872 132.534 149.111 132.216C148.349 131.886 147.321 131.58 146.026 131.295L142.548 130.545C139.457 129.875 137.02 128.756 135.236 127.188C133.463 125.608 132.582 123.455 132.594 120.727C132.582 118.511 133.173 116.574 134.366 114.915C135.571 113.244 137.236 111.943 139.361 111.011C141.497 110.08 143.946 109.614 146.707 109.614C149.526 109.614 151.963 110.085 154.02 111.028C156.077 111.972 157.662 113.301 158.776 115.017C159.901 116.722 160.469 118.716 160.48 121H151.412ZM174.04 110.091V145H164.562V110.091H174.04ZM177.577 117.727V110.091H207.918V117.727H197.418V145H188.077V117.727H177.577ZM211.484 145V110.091H236.643V117.727H220.962V123.727H235.348V131.364H220.962V137.364H236.575V145H211.484Z" fill="black"/>
</svg>
